…
Let’s start with a for loop

``` r
output = vector("list", length = 100)

for (i in 1:100) {
  
  output[[i]] = sim_mean_sd(n = 30)
  
}

bind_rows(output)
```

    ## # A tibble: 100 x 2
    ##     mean    sd
    ##    <dbl> <dbl>
    ##  1  2.95  4.41
    ##  2  2.78  4.73
    ##  3  2.12  3.62
    ##  4  3.41  3.04
    ##  5  3.45  4.13
    ##  6  1.93  4.45
    ##  7  3.13  3.67
    ##  8  2.81  3.39
    ##  9  2.66  4.67
    ## 10  3.91  3.53
    ## # ... with 90 more rows
…
